%!PS-Adobe-3.0 EPSF-3.0
%%Creator: cairo 1.12.14 (http://cairographics.org)
%%CreationDate: Wed May 29 03:14:50 2013
%%Pages: 1
%%DocumentData: Clean7Bit
%%LanguageLevel: 2
%%BoundingBox: 0 -1 696 286
%%EndComments
%%BeginProlog
save
50 dict begin
/q { gsave } bind def
/Q { grestore } bind def
/cm { 6 array astore concat } bind def
/w { setlinewidth } bind def
/J { setlinecap } bind def
/j { setlinejoin } bind def
/M { setmiterlimit } bind def
/d { setdash } bind def
/m { moveto } bind def
/l { lineto } bind def
/c { curveto } bind def
/h { closepath } bind def
/re { exch dup neg 3 1 roll 5 3 roll moveto 0 rlineto
      0 exch rlineto 0 rlineto closepath } bind def
/S { stroke } bind def
/f { fill } bind def
/f* { eofill } bind def
/n { newpath } bind def
/W { clip } bind def
/W* { eoclip } bind def
/BT { } bind def
/ET { } bind def
/pdfmark where { pop globaldict /?pdfmark /exec load put }
    { globaldict begin /?pdfmark /pop load def /pdfmark
    /cleartomark load def end } ifelse
/BDC { mark 3 1 roll /BDC pdfmark } bind def
/EMC { mark /EMC pdfmark } bind def
/cairo_store_point { /cairo_point_y exch def /cairo_point_x exch def } def
/Tj { show currentpoint cairo_store_point } bind def
/TJ {
  {
    dup
    type /stringtype eq
    { show } { -0.001 mul 0 cairo_font_matrix dtransform rmoveto } ifelse
  } forall
  currentpoint cairo_store_point
} bind def
/cairo_selectfont { cairo_font_matrix aload pop pop pop 0 0 6 array astore
    cairo_font exch selectfont cairo_point_x cairo_point_y moveto } bind def
/Tf { pop /cairo_font exch def /cairo_font_matrix where
      { pop cairo_selectfont } if } bind def
/Td { matrix translate cairo_font_matrix matrix concatmatrix dup
      /cairo_font_matrix exch def dup 4 get exch 5 get cairo_store_point
      /cairo_font where { pop cairo_selectfont } if } bind def
/Tm { 2 copy 8 2 roll 6 array astore /cairo_font_matrix exch def
      cairo_store_point /cairo_font where { pop cairo_selectfont } if } bind def
/g { setgray } bind def
/rg { setrgbcolor } bind def
/d1 { setcachedevice } bind def
%%EndProlog
%%Page: 1 1
%%BeginPageSetup
%%PageBoundingBox: 0 -1 696 286
%%EndPageSetup
q 0 -1 696 287 rectclip q
0.882353 0 0.0980392 rg
213.637 183.292 m 207.906 193.21 l 206.566 195.425 204.145 196.909 201.367
 196.936 c 201.367 196.948 l 123.684 196.948 l 136.219 218.663 l 137.566
 221.061 137.512 223.878 136.281 226.147 c 136.289 226.139 l 130.539 236.097
 l 129.887 237.374 128.887 238.472 127.559 239.245 c 126.238 240.011 124.77
 240.319 123.352 240.257 c 111.906 240.261 l 109.305 240.206 106.812 238.85
 105.406 236.46 c 92.859 214.745 l 54.023 282.011 l 54.012 282.007 l 52.617
 284.378 50.148 285.729 47.586 285.804 c 36.094 285.804 l 34.66 285.878 
33.203 285.561 31.871 284.788 c 30.543 284.03 29.547 282.929 28.887 281.671
 c 23.16 271.745 l 21.914 269.475 21.84 266.636 23.195 264.214 c 62.043 
196.948 l 13.488 196.948 l 10.703 196.917 8.285 195.425 6.945 193.21 c 1.215
 183.292 l 0.445 182.097 0.004 180.671 0 179.151 c 0 177.612 0.457 176.186
 1.23 174.979 c 6.973 165.03 l 6.984 165.042 l 8.328 162.847 10.73 161.389
 13.488 161.362 c 13.488 161.354 l 62.043 161.354 l 23.207 94.073 l 21.84
 91.675 21.914 88.823 23.168 86.565 c 23.16 86.557 l 28.887 76.628 l 29.547
 75.378 30.543 74.28 31.871 73.511 c 33.203 72.745 34.656 72.432 36.094 
72.495 c 47.586 72.483 l 47.574 72.495 l 50.148 72.573 52.629 73.921 54.023
 76.3 c 54.023 76.288 l 92.859 143.557 l 105.406 121.831 l 106.812 119.448
 109.305 118.093 111.906 118.038 c 123.359 118.03 l 124.77 117.964 126.227
 118.3 127.559 119.057 c 128.887 119.823 129.887 120.921 130.551 122.198
 c 136.289 132.147 l 136.281 132.147 l 137.512 134.417 137.566 137.241 136.219
 139.636 c 136.23 139.636 l 123.688 161.354 l 201.367 161.354 l 201.367 
161.362 l 204.117 161.389 206.535 162.847 207.879 165.042 c 213.621 174.979
 l 214.395 176.186 214.863 177.612 214.863 179.151 c 214.863 180.671 214.406
 182.097 213.637 183.292 c f
0.282353 g
215 117.975 m 217.961 117.975 l 217.961 106.679 l 231.16 106.679 l 231.16
 117.975 l 234.117 117.975 l 234.117 91.909 l 231.16 91.909 l 231.16 104.085
 l 217.961 104.085 l 217.961 91.909 l 215 91.909 l f
239.176 98.526 m 239.176 103.28 l 239.176 108.108 242.684 110.628 246.816
 110.628 c 251.348 110.628 254.527 107.96 254.527 103.315 c 254.527 98.823
 l 254.527 94.034 251.094 91.436 246.93 91.436 c 242.426 91.436 239.176 
93.886 239.176 98.526 c 251.75 98.714 m 251.75 103.569 l 251.75 106.347 
250.109 108.323 246.816 108.323 c 243.785 108.323 241.918 106.534 241.918
 103.429 c 241.918 98.6 l 241.918 95.714 243.676 93.776 246.93 93.776 c 
249.961 93.776 251.75 95.417 251.75 98.714 c f
258.453 98.858 m 258.453 102.952 l 258.453 107.811 261.598 110.624 266.055
 110.624 c 270.262 110.624 273.297 108.253 273.297 104.268 c 273.297 103.796
 l 270.664 103.796 l 270.664 104.409 l 270.664 106.46 269.129 108.358 266.09
 108.358 c 263.062 108.358 261.27 106.28 261.27 103.206 c 261.27 98.788 
l 261.27 95.819 262.84 93.776 266.129 93.776 c 269.164 93.776 270.664 95.639
 270.664 97.686 c 270.664 98.202 l 273.297 98.202 l 273.297 97.792 l 273.297
 93.85 270.367 91.432 266.129 91.432 c 261.562 91.432 258.453 94.104 258.453
 98.858 c f
277.621 118.011 m 280.328 118.011 l 280.328 107.081 l 280.434 107.081 l
 281.672 109.456 284.016 110.663 286.352 110.663 c 290.262 110.663 292.238
 108.104 292.238 104.597 c 292.238 91.913 l 289.5 91.913 l 289.5 103.573
 l 289.5 106.827 287.969 108.288 285.516 108.288 c 282.738 108.288 280.328
 106.206 280.328 102.729 c 280.328 91.913 l 277.621 91.913 l f
296.449 94.397 m 298.316 95.932 l 299.785 94.44 301.531 93.671 303.875 
93.671 c 306.066 93.671 308.336 94.804 308.336 96.956 c 308.336 99.007 307.055
 99.589 304.531 100.061 c 302.41 100.499 l 299.227 101.124 297.258 102.589
 297.258 105.222 c 297.258 108.393 299.852 110.698 303.836 110.698 c 306.613
 110.698 308.812 110.042 310.23 108.393 c 308.371 106.975 l 307.203 107.991
 305.777 108.581 303.695 108.581 c 301.457 108.581 299.926 107.378 299.926
 105.624 c 299.926 103.866 301.426 103.284 303.906 102.768 c 306.656 102.186
 l 309.352 101.597 311.148 100.136 311.148 97.432 c 311.148 93.444 307.457
 91.472 303.906 91.472 c 300.918 91.472 298.168 92.276 296.449 94.397 c f
314.848 98.858 m 314.848 102.952 l 314.848 107.811 317.992 110.624 322.457
 110.624 c 326.656 110.624 329.691 108.253 329.691 104.268 c 329.691 103.796
 l 327.066 103.796 l 327.066 104.409 l 327.066 106.46 325.527 108.358 322.492
 108.358 c 319.457 108.358 317.664 106.28 317.664 103.206 c 317.664 98.788
 l 317.664 95.819 319.234 93.776 322.523 93.776 c 325.559 93.776 327.066
 95.639 327.066 97.686 c 327.066 98.202 l 329.691 98.202 l 329.691 97.792
 l 329.691 93.85 326.77 91.432 322.523 91.432 c 317.953 91.432 314.848 94.104
 314.848 98.858 c f
334.012 118.011 m 336.723 118.011 l 336.723 107.081 l 336.832 107.081 l
 338.07 109.456 340.414 110.663 342.75 110.663 c 346.66 110.663 348.637 
108.104 348.637 104.597 c 348.637 91.913 l 345.891 91.913 l 345.891 103.573
 l 345.891 106.827 344.359 108.288 341.914 108.288 c 339.137 108.288 336.723
 106.206 336.723 102.729 c 336.723 91.913 l 334.012 91.913 l f
353.984 97.581 m 353.984 110.261 l 356.723 110.261 l 356.723 98.604 l 356.723
 95.35 358.297 93.925 360.746 93.925 c 363.484 93.925 365.902 96.007 365.902
 99.483 c 365.902 110.261 l 368.609 110.261 l 368.609 91.909 l 365.977 91.909
 l 365.977 95.097 l 365.902 95.097 l 364.617 92.679 362.312 91.472 359.871
 91.472 c 355.957 91.472 353.984 94.104 353.984 97.581 c f
374.246 96.409 m 374.246 118.011 l 376.988 118.011 l 376.988 96.3 l 376.988
 95.018 377.684 94.038 379.363 94.038 c 380.094 94.038 380.719 94.143 381.379
 94.214 c 381.379 92.136 l 380.461 91.839 379.328 91.694 378.453 91.694 
c 374.945 91.694 374.246 94.288 374.246 96.409 c f
384.453 98.893 m 384.453 102.772 l 384.453 107.815 387.891 110.628 392.309
 110.628 c 396.367 110.628 399.59 108.179 399.59 103.429 c 399.59 100.542
 l 387.266 100.542 l 387.266 98.639 l 387.266 95.643 389.312 93.776 392.527
 93.776 c 394.652 93.776 396.188 94.878 397.176 96.116 c 399.258 94.878 
l 397.609 92.311 394.98 91.436 392.348 91.436 c 387.848 91.436 384.453 93.85
 384.453 98.893 c 396.883 102.436 m 396.883 103.503 l 396.883 106.28 395.234
 108.354 392.16 108.354 c 389.207 108.354 387.266 106.167 387.266 103.241
 c 387.266 102.436 l f
414.773 117.975 m 425.082 117.975 l 429.98 117.975 433.926 115.12 433.926
 109.784 c 433.926 106.679 432.285 103.464 428.777 102.225 c 435.246 91.909
 l 429.941 91.909 l 423.84 101.671 l 419.637 101.671 l 419.637 91.909 l 
414.773 91.909 l h
424.496 105.764 m 427.312 105.764 429.18 107.12 429.18 109.823 c 429.18
 112.893 427.129 113.874 424.422 113.874 c 419.637 113.874 l 419.637 105.764
 l f
438.914 117.975 m 443.371 117.975 l 443.371 108.323 l 443.48 108.323 l 
444.723 110.12 446.703 110.991 448.633 110.991 c 452.84 110.991 455.18 108.358
 455.18 103.905 c 455.18 91.909 l 450.719 91.909 l 450.719 102.768 l 450.719
 105.581 449.512 107.081 447.242 107.081 c 444.801 107.081 443.371 105.581
 443.371 102.405 c 443.371 91.909 l 438.914 91.909 l f
459.469 99.116 m 459.469 102.768 l 459.469 108.026 463.418 110.96 468.059
 110.96 c 472.113 110.96 476.141 108.577 476.141 103.608 c 476.141 99.991
 l 464.105 99.991 l 464.105 98.964 l 464.105 96.589 466.047 95.206 468.426
 95.206 c 469.926 95.206 471.492 96.186 472.484 97.616 c 475.918 95.639 
l 474.453 92.718 471.492 91.472 468.203 91.472 c 463.598 91.472 459.469 
93.991 459.469 99.116 c 471.68 103.1 m 471.68 103.608 l 471.68 106.167 469.887
 107.19 468.059 107.19 c 466.156 107.19 464.105 106.167 464.105 103.354 
c 464.105 103.1 l f
480.719 118.229 m 485.18 118.229 l 485.18 113.475 l 480.719 113.475 l h
480.719 110.624 m 485.18 110.624 l 485.18 91.905 l 480.719 91.905 l f
490.555 110.628 m 494.902 110.628 l 494.902 108.323 l 494.977 108.323 l
 496.223 110.116 498.199 110.991 500.277 110.991 c 504.484 110.991 506.824
 108.358 506.824 103.901 c 506.824 91.909 l 502.363 91.909 l 502.363 102.768
 l 502.363 105.581 501.156 107.081 498.887 107.081 c 496.441 107.081 495.016
 105.581 495.016 102.405 c 495.016 91.909 l 490.555 91.909 l f
512.941 117.975 m 518.859 117.975 l 525.586 101.671 l 525.66 101.671 l 
532.207 117.975 l 538.129 117.975 l 538.129 91.909 l 533.445 91.909 l 533.445
 109.276 l 533.375 109.276 l 527.453 94.913 l 523.617 94.913 l 517.691 109.198
 l 517.617 109.198 l 517.617 91.909 l 512.941 91.909 l f
542.527 97.214 m 542.527 100.831 545.82 102.991 549.438 102.991 c 554.406
 102.991 l 554.406 104.706 l 554.406 106.682 553.098 107.518 550.832 107.518
 c 548.891 107.518 547.461 106.862 547.461 105.659 c 547.461 104.999 l 543.445
 104.999 l 543.445 105.511 l 543.445 109.6 547.355 110.995 550.863 110.995
 c 555.031 110.995 558.867 109.6 558.867 105.034 c 558.867 95.932 l 558.867
 95.097 558.98 92.311 559.199 91.909 c 554.777 91.909 l 554.703 92.206 554.629
 93.343 554.594 93.632 c 554.52 93.632 l 552.875 91.909 551.453 91.546 549.035
 91.546 c 545.156 91.546 542.527 93.671 542.527 97.214 c 554.406 98.819 
m 554.406 99.729 l 550.027 99.729 l 548.125 99.729 546.883 99.073 546.883
 97.432 c 546.883 95.862 548.16 95.054 550.242 95.054 c 553.824 95.054 554.406
 96.811 554.406 98.819 c f
564.074 118.229 m 568.535 118.229 l 568.535 113.475 l 564.074 113.475 l
 h
564.074 110.624 m 568.535 110.624 l 568.535 91.905 l 564.074 91.905 l f
573.91 110.628 m 578.262 110.628 l 578.262 108.323 l 578.332 108.323 l 
579.574 110.116 581.551 110.991 583.633 110.991 c 587.84 110.991 590.184
 108.358 590.184 103.901 c 590.184 91.909 l 585.715 91.909 l 585.715 102.768
 l 585.715 105.581 584.512 107.081 582.246 107.081 c 579.797 107.081 578.371
 105.581 578.371 102.405 c 578.371 91.909 l 573.91 91.909 l f
214.781 54.71 m 214.781 72.257 l 217.742 72.257 l 217.742 55.222 l 217.742
 50.581 220.555 48.421 224.473 48.421 c 228.707 48.421 231.266 50.831 231.16
 55.112 c 231.16 72.257 l 234.078 72.257 l 234.078 54.889 l 234.121 49.155
 230.168 45.757 224.391 45.757 c 219.348 45.757 214.781 48.421 214.781 54.71
 c f
239.797 64.542 m 242.426 64.542 l 242.426 61.362 l 242.504 61.362 l 243.785
 63.737 246.086 64.944 248.535 64.944 c 252.445 64.944 254.422 62.389 254.422
 58.878 c 254.422 46.186 l 251.676 46.186 l 251.676 57.854 l 251.676 61.108
 250.145 62.565 247.695 62.565 c 244.922 62.565 242.504 60.487 242.504 57.011
 c 242.504 46.186 l 239.797 46.186 l f
259.949 72.253 m 262.656 72.253 l 262.656 68.268 l 259.949 68.268 l h
259.949 64.542 m 262.656 64.542 l 262.656 46.186 l 259.949 46.186 l f
266.352 64.542 m 269.281 64.542 l 274.359 49.593 l 274.398 49.593 l 279.586
 64.542 l 282.359 64.542 l 275.676 46.12 l 272.969 46.12 l f
285.188 53.175 m 285.188 57.05 l 285.188 62.097 288.625 64.909 293.051 
64.909 c 297.102 64.909 300.324 62.46 300.324 57.71 c 300.324 54.819 l 288.004
 54.819 l 288.004 52.917 l 288.004 49.925 290.051 48.054 293.262 48.054 
c 295.391 48.054 296.922 49.155 297.906 50.397 c 299.992 49.155 l 298.344
 46.593 295.715 45.718 293.086 45.718 c 288.582 45.718 285.188 48.128 285.188
 53.175 c 297.617 56.718 m 297.617 57.784 l 297.617 60.557 295.969 62.639
 292.902 62.639 c 289.941 62.639 288.004 60.452 288.004 57.522 c 288.004
 56.718 l f
304.934 64.542 m 307.605 64.542 l 307.605 60.854 l 307.676 60.854 l 309.141
 63.772 311.879 64.839 314.262 64.839 c 314.73 64.839 315.207 64.8 315.609
 64.725 c 315.609 62.167 l 314.992 62.28 314.402 62.28 313.926 62.28 c 310.457
 62.28 307.754 60.155 307.676 56.206 c 307.676 46.186 l 304.934 46.186 l
 f
317.887 48.679 m 319.746 50.214 l 321.215 48.722 322.969 47.952 325.305
 47.952 c 327.5 47.952 329.766 49.085 329.766 51.237 c 329.766 53.288 328.488
 53.87 325.961 54.343 c 323.848 54.78 l 320.664 55.405 318.691 56.87 318.691
 59.503 c 318.691 62.682 321.285 64.987 325.273 64.987 c 328.051 64.987 
330.242 64.327 331.668 62.682 c 329.805 61.257 l 328.633 62.276 327.211 
62.862 325.125 62.862 c 322.895 62.862 321.363 61.659 321.363 59.905 c 321.363
 58.143 322.855 57.561 325.34 57.05 c 328.086 56.468 l 330.789 55.878 332.578
 54.417 332.578 51.714 c 332.578 47.725 328.891 45.753 325.34 45.753 c 322.348
 45.753 319.605 46.557 317.887 48.679 c f
337.16 72.253 m 339.871 72.253 l 339.871 68.268 l 337.16 68.268 l h
337.16 64.542 m 339.871 64.542 l 339.871 46.186 l 337.16 46.186 l f
346.812 50.03 m 346.812 62.311 l 343.637 62.311 l 343.637 64.507 l 346.812
 64.507 l 346.812 70.249 l 349.523 70.249 l 349.523 64.507 l 354.602 64.507
 l 354.602 62.311 l 349.523 62.311 l 349.523 50.725 l 349.523 48.897 350.469
 48.35 352.113 48.35 c 353.066 48.35 353.902 48.495 354.781 48.679 c 354.781
 46.339 l 353.648 45.975 352.156 45.866 351.387 45.866 c 348.969 45.866 
346.812 46.889 346.812 50.03 c f
357.094 39.03 m 357.094 41.37 l 357.859 41.186 358.629 41.073 359.359 41.073
 c 360.859 41.073 361.918 41.991 362.434 43.378 c 363.672 46.632 l 356.766
 64.542 l 359.727 64.542 l 365.023 50.03 l 365.098 50.03 l 370.18 64.542
 l 372.961 64.542 l 365.062 43.081 l 363.891 39.796 361.664 38.768 359.324
 38.768 c 358.734 38.768 357.93 38.843 357.094 39.03 c f
384.266 52.807 m 384.266 57.561 l 384.266 62.386 387.773 64.909 391.91 
64.909 c 396.441 64.909 399.625 62.245 399.625 57.597 c 399.625 53.104 l
 399.625 48.315 396.188 45.718 392.016 45.718 c 387.523 45.718 384.266 48.167
 384.266 52.807 c 396.844 52.991 m 396.844 57.85 l 396.844 60.628 395.199
 62.604 391.91 62.604 c 388.875 62.604 387.012 60.819 387.012 57.71 c 387.012
 52.882 l 387.012 49.995 388.762 48.054 392.016 48.054 c 395.051 48.054 
396.844 49.702 396.844 52.991 c f
406.027 62.354 m 402.777 62.354 l 402.777 64.503 l 406.027 64.503 l 406.027
 67.651 l 406.027 71.014 407.785 72.839 411 72.839 c 411.695 72.839 412.391
 72.768 413.008 72.62 c 413.008 70.249 l 412.391 70.389 411.949 70.429 411.219
 70.429 c 409.832 70.429 408.734 69.733 408.734 67.8 c 408.734 64.503 l 
412.902 64.503 l 412.902 62.354 l 408.734 62.354 l 408.734 46.194 l 406.027
 46.194 l f
433.055 72.327 m 435.797 72.327 l 445.41 46.19 l 442.301 46.19 l 439.633
 53.761 l 428.992 53.761 l 426.254 46.19 l 423.297 46.19 l h
438.793 56.249 m 434.371 68.784 l 434.332 68.784 l 429.836 56.249 l f
449.406 64.542 m 452.039 64.542 l 452.039 61.546 l 452.113 61.546 l 453.43
 63.96 455.918 64.944 457.891 64.944 c 461.801 64.944 464.543 62.495 464.543
 58.444 c 464.543 52.804 l 464.543 47.874 461.141 45.718 457.562 45.718 
c 455.254 45.718 453.023 47.034 452.219 49.116 c 452.113 49.116 l 452.113
 39.097 l 449.406 39.097 l h
461.766 52.55 m 461.766 58.331 l 461.766 60.78 459.973 62.6 457.082 62.6
 c 454.746 62.6 452.113 60.667 452.113 57.159 c 452.113 53.245 l 452.113
 50.065 454.449 48.057 457.156 48.057 c 459.387 48.057 461.766 49.409 461.766
 52.55 c f
469.379 64.542 m 472.008 64.542 l 472.008 61.546 l 472.086 61.546 l 473.398
 63.96 475.883 64.944 477.855 64.944 c 481.77 64.944 484.516 62.495 484.516
 58.444 c 484.516 52.804 l 484.516 47.874 481.113 45.718 477.531 45.718 
c 475.227 45.718 472.996 47.034 472.195 49.116 c 472.086 49.116 l 472.086
 39.097 l 469.379 39.097 l h
481.734 52.55 m 481.734 58.331 l 481.734 60.78 479.949 62.6 477.055 62.6
 c 474.715 62.6 472.086 60.667 472.086 57.159 c 472.086 53.245 l 472.086
 50.065 474.422 48.057 477.129 48.057 c 479.355 48.057 481.734 49.409 481.734
 52.55 c f
489.383 50.69 m 489.383 72.292 l 492.125 72.292 l 492.125 50.581 l 492.125
 49.3 492.824 48.319 494.504 48.319 c 495.234 48.319 495.859 48.425 496.516
 48.491 c 496.516 46.417 l 495.598 46.12 494.465 45.975 493.59 45.975 c 
490.078 45.975 489.383 48.565 489.383 50.69 c f
500.465 72.253 m 503.172 72.253 l 503.172 68.268 l 500.465 68.268 l h
500.465 64.542 m 503.172 64.542 l 503.172 46.186 l 500.465 46.186 l f
508.004 53.175 m 508.004 57.05 l 508.004 62.097 511.441 64.909 515.859 
64.909 c 519.918 64.909 523.141 62.46 523.141 57.71 c 523.141 54.819 l 510.816
 54.819 l 510.816 52.917 l 510.816 49.925 512.859 48.054 516.078 48.054 
c 518.203 48.054 519.738 49.155 520.723 50.397 c 522.805 49.155 l 521.16
 46.593 518.531 45.718 515.898 45.718 c 511.398 45.718 508.004 48.128 508.004
 53.175 c 520.434 56.718 m 520.434 57.784 l 520.434 60.557 518.785 62.639
 515.711 62.639 c 512.754 62.639 510.816 60.452 510.816 57.522 c 510.816
 56.718 l f
527.023 52.264 m 527.023 57.889 l 527.023 62.827 530.418 64.94 534.043 
64.94 c 536.309 64.94 538.535 63.663 539.34 61.589 c 539.453 61.589 l 539.453
 72.257 l 542.16 72.257 l 542.16 46.19 l 539.52 46.19 l 539.52 49.413 l 
539.453 49.413 l 538.207 46.854 535.609 45.718 533.707 45.718 c 529.762 
45.718 527.023 48.206 527.023 52.264 c 539.453 53.608 m 539.453 57.448 l
 539.453 60.628 537.148 62.643 534.41 62.643 c 532.172 62.643 529.762 61.292
 529.762 58.147 c 529.762 52.37 l 529.762 49.921 531.59 48.093 534.477 48.093
 c 536.855 48.093 539.453 50.065 539.453 53.608 c f
555.66 52.003 m 558.367 52.995 l 559.391 50.065 562.02 48.354 565.562 48.354
 c 569 48.354 571.777 50.034 571.777 53.03 c 571.777 55.807 570.062 56.94
 567.762 57.675 c 562.824 59.057 l 559.168 60.085 557.047 61.987 557.047
 65.71 c 557.047 70.03 560.703 72.729 565.418 72.729 c 569.441 72.729 572.805
 71.229 574.156 67.8 c 571.598 66.776 l 570.465 69.007 568.344 70.245 565.383
 70.245 c 562.711 70.245 559.973 68.893 559.973 65.972 c 559.973 63.925 
561.211 62.495 564.285 61.585 c 569.262 60.19 l 572.332 59.35 574.672 57.452
 574.672 53.323 c 574.672 48.862 570.973 45.753 565.418 45.753 c 560.668
 45.753 556.867 47.913 555.66 52.003 c f
578.371 53.136 m 578.371 57.233 l 578.371 62.093 581.52 64.905 585.977 
64.905 c 590.184 64.905 593.219 62.53 593.219 58.546 c 593.219 58.077 l 
590.586 58.077 l 590.586 58.69 l 590.586 60.741 589.047 62.643 586.012 62.643
 c 582.98 62.643 581.191 60.561 581.191 57.487 c 581.191 53.069 l 581.191
 50.1 582.758 48.057 586.051 48.057 c 589.086 48.057 590.586 49.921 590.586
 51.968 c 590.586 52.479 l 593.219 52.479 l 593.219 52.073 l 593.219 48.132
 590.289 45.714 586.051 45.714 c 581.477 45.714 578.371 48.386 578.371 53.136
 c f
597.543 72.253 m 600.25 72.253 l 600.25 68.268 l 597.543 68.268 l h
597.543 64.542 m 600.25 64.542 l 600.25 46.186 l 597.543 46.186 l f
605.07 53.175 m 605.07 57.05 l 605.07 62.097 608.512 64.909 612.934 64.909
 c 616.988 64.909 620.207 62.46 620.207 57.71 c 620.207 54.819 l 607.891
 54.819 l 607.891 52.917 l 607.891 49.925 609.934 48.054 613.145 48.054 
c 615.277 48.054 616.809 49.155 617.793 50.397 c 619.875 49.155 l 618.227
 46.593 615.598 45.718 612.973 45.718 c 608.469 45.718 605.07 48.128 605.07
 53.175 c 617.5 56.718 m 617.5 57.784 l 617.5 60.557 615.852 62.639 612.785
 62.639 c 609.824 62.639 607.891 60.452 607.891 57.522 c 607.891 56.718 
l f
624.965 64.542 m 627.594 64.542 l 627.594 61.362 l 627.676 61.362 l 628.957
 63.737 631.254 64.944 633.703 64.944 c 637.613 64.944 639.59 62.389 639.59
 58.878 c 639.59 46.186 l 636.844 46.186 l 636.844 57.854 l 636.844 61.108
 635.312 62.565 632.867 62.565 c 630.09 62.565 627.676 60.487 627.676 57.011
 c 627.676 46.186 l 624.965 46.186 l f
644.242 53.136 m 644.242 57.233 l 644.242 62.093 647.387 64.905 651.852
 64.905 c 656.051 64.905 659.086 62.53 659.086 58.546 c 659.086 58.077 l
 656.461 58.077 l 656.461 58.69 l 656.461 60.741 654.922 62.643 651.887 
62.643 c 648.852 62.643 647.059 60.561 647.059 57.487 c 647.059 53.069 l
 647.059 50.1 648.629 48.057 651.918 48.057 c 654.953 48.057 656.461 49.921
 656.461 51.968 c 656.461 52.479 l 659.086 52.479 l 659.086 52.073 l 659.086
 48.132 656.164 45.714 651.918 45.714 c 647.348 45.714 644.242 48.386 644.242
 53.136 c f
662.527 53.175 m 662.527 57.05 l 662.527 62.097 665.969 64.909 670.387 
64.909 c 674.449 64.909 677.668 62.46 677.668 57.71 c 677.668 54.819 l 665.344
 54.819 l 665.344 52.917 l 665.344 49.925 667.395 48.054 670.609 48.054 
c 672.727 48.054 674.266 49.155 675.254 50.397 c 677.332 49.155 l 675.691
 46.593 673.059 45.718 670.422 45.718 c 665.93 45.718 662.527 48.128 662.527
 53.175 c 674.957 56.718 m 674.957 57.784 l 674.957 60.557 673.316 62.639
 670.242 62.639 c 667.281 62.639 665.344 60.452 665.344 57.522 c 665.344
 56.718 l f
681.113 48.679 m 682.977 50.214 l 684.438 48.722 686.191 47.952 688.535
 47.952 c 690.723 47.952 692.992 49.085 692.992 51.237 c 692.992 53.288 
691.707 53.87 689.191 54.343 c 687.066 54.78 l 683.887 55.405 681.918 56.87
 681.918 59.503 c 681.918 62.682 684.512 64.987 688.496 64.987 c 691.273
 64.987 693.473 64.327 694.895 62.682 c 693.027 61.257 l 691.855 62.276 
690.43 62.862 688.348 62.862 c 686.117 62.862 684.586 61.659 684.586 59.905
 c 684.586 58.143 686.086 57.561 688.566 57.05 c 691.312 56.468 l 694.012
 55.878 695.809 54.417 695.809 51.714 c 695.809 47.725 692.109 45.753 688.566
 45.753 c 685.574 45.753 682.828 46.557 681.113 48.679 c f
212.988 26.538 m 216.023 26.538 l 221.172 5.011 l 221.211 5.011 l 226.77
 26.538 l 229.402 26.538 l 234.848 5.011 l 234.922 5.011 l 240.152 26.538
 l 243.074 26.538 l 236.309 0.327 l 233.535 0.327 l 228.086 21.929 l 228.012
 21.929 l 222.566 0.327 l 219.715 0.327 l f
247 26.534 m 249.707 26.534 l 249.707 22.55 l 247 22.55 l h
247 18.819 m 249.707 18.819 l 249.707 0.472 l 247 0.472 l f
255.27 7.452 m 255.27 11.327 l 255.27 16.378 258.707 19.19 263.125 19.19
 c 267.191 19.19 270.406 16.741 270.406 11.991 c 270.406 9.1 l 258.082 9.1
 l 258.082 7.198 l 258.082 4.206 260.133 2.335 263.348 2.335 c 265.469 2.335
 267.004 3.436 267.996 4.679 c 270.07 3.436 l 268.43 0.874 265.797 -0.001
 263.164 -0.001 c 258.668 -0.001 255.27 2.409 255.27 7.452 c 267.699 10.999
 m 267.699 12.061 l 267.699 14.839 266.055 16.921 262.984 16.921 c 260.02
 16.921 258.082 14.733 258.082 11.804 c 258.082 10.999 l f
273.852 2.956 m 275.711 4.495 l 277.172 2.999 278.934 2.233 281.273 2.233
 c 283.461 2.233 285.73 3.366 285.73 5.518 c 285.73 7.565 284.445 8.151 
281.926 8.62 c 279.805 9.061 l 276.629 9.686 274.656 11.147 274.656 13.784
 c 274.656 16.96 277.246 19.264 281.238 19.264 c 284.012 19.264 286.207 
18.608 287.625 16.96 c 285.762 15.534 l 284.594 16.557 283.172 17.139 281.082
 17.139 c 278.859 17.139 277.32 15.94 277.32 14.186 c 277.32 12.425 278.82
 11.843 281.305 11.331 c 284.051 10.745 l 286.754 10.159 288.543 8.694 288.543
 5.995 c 288.543 2.011 284.852 0.034 281.305 0.034 c 278.305 0.034 275.566
 0.839 273.852 2.956 c f
295.828 3.401 m 295.719 3.401 l 295.719 0.472 l 293.117 0.472 l 293.117
 26.538 l 295.828 26.538 l 295.828 15.823 l 295.938 15.823 l 297.184 18.276
 299.629 19.225 301.602 19.225 c 305.516 19.225 308.258 16.741 308.258 12.682
 c 308.258 7.089 l 308.258 2.155 304.781 -0.001 301.168 -0.001 c 298.898
 -0.001 296.633 1.311 295.828 3.401 c 305.48 6.835 m 305.48 12.682 l 305.48
 15.136 303.688 16.886 300.801 16.886 c 298.461 16.886 295.828 14.839 295.828
 11.331 c 295.828 7.526 l 295.828 4.347 298.168 2.335 300.871 2.335 c 303.105
 2.335 305.48 3.69 305.48 6.835 c f
312.07 5.409 m 312.07 9.393 315.688 10.929 318.867 10.929 c 324.098 10.929
 l 324.098 13.483 l 324.098 16.124 322.336 17.069 319.711 17.069 c 317.551
 17.069 315.359 16.304 315.359 14.222 c 315.359 13.597 l 312.875 13.597 
l 312.875 14.139 l 312.875 17.878 316.383 19.222 319.82 19.222 c 323.508
 19.222 326.84 17.944 326.84 13.819 c 326.84 4.936 l 326.84 3.909 326.984
 1.202 327.094 0.472 c 324.43 0.472 l 324.352 1.022 324.277 2.597 324.238
 3.069 c 324.172 3.069 l 322.633 0.546 320.441 0.069 318.172 0.069 c 314.738
 0.069 312.07 2.007 312.07 5.409 c 324.098 7.163 m 324.098 8.917 l 319.344
 8.917 l 317 8.917 314.777 8.292 314.777 5.554 c 314.777 3.323 316.68 2.229
 318.902 2.229 c 322.559 2.229 324.098 4.276 324.098 7.163 c f
331.379 6.542 m 331.379 12.171 l 331.379 17.108 334.777 19.222 338.402 
19.222 c 340.668 19.222 342.895 17.944 343.699 15.866 c 343.809 15.866 l
 343.809 26.538 l 346.516 26.538 l 346.516 0.472 l 343.883 0.472 l 343.883
 3.686 l 343.809 3.686 l 342.566 1.132 339.969 -0.001 338.07 -0.001 c 334.121
 -0.001 331.379 2.483 331.379 6.542 c 343.809 7.889 m 343.809 11.729 l 343.809
 14.909 341.504 16.921 338.766 16.921 c 336.535 16.921 334.121 15.573 334.121
 12.429 c 334.121 6.647 l 334.121 4.202 335.949 2.374 338.84 2.374 c 341.215
 2.374 343.809 4.343 343.809 7.889 c f
351.387 7.452 m 351.387 11.327 l 351.387 16.378 354.824 19.19 359.242 19.19
 c 363.309 19.19 366.523 16.741 366.523 11.991 c 366.523 9.1 l 354.199 9.1
 l 354.199 7.198 l 354.199 4.206 356.25 2.335 359.465 2.335 c 361.586 2.335
 363.121 3.436 364.113 4.679 c 366.191 3.436 l 364.547 0.874 361.914 -0.001
 359.281 -0.001 c 354.789 -0.001 351.387 2.409 351.387 7.452 c 363.816 10.999
 m 363.816 12.061 l 363.816 14.839 362.172 16.921 359.102 16.921 c 356.141
 16.921 354.199 14.733 354.199 11.804 c 354.199 10.999 l f
371.281 18.823 m 373.914 18.823 l 373.914 15.643 l 373.988 15.643 l 375.27
 18.014 377.57 19.225 380.023 19.225 c 383.934 19.225 385.91 16.671 385.91
 13.159 c 385.91 0.472 l 383.164 0.472 l 383.164 12.136 l 383.164 15.389
 381.629 16.847 379.18 16.847 c 376.406 16.847 373.988 14.768 373.988 11.292
 c 373.988 0.472 l 371.281 0.472 l f
402.305 26.573 m 411.547 26.573 l 416.52 26.573 420.062 23.722 420.062 
18.784 c 420.062 15.241 418.02 12.061 413.703 11.261 c 421.27 0.472 l 417.984
 0.472 l 410.633 10.999 l 405.258 10.999 l 405.258 0.472 l 402.305 0.472
 l h
410.891 13.448 m 414.84 13.448 417.145 15.171 417.145 18.819 c 417.145 
22.444 414.652 24.089 410.816 24.089 c 405.258 24.089 l 405.258 13.448 l
 f
425.121 6.139 m 425.121 18.819 l 427.867 18.819 l 427.867 7.163 l 427.867
 3.909 429.441 2.483 431.891 2.483 c 434.629 2.483 437.039 4.569 437.039
 8.042 c 437.039 18.819 l 439.746 18.819 l 439.746 0.472 l 437.113 0.472
 l 437.113 3.655 l 437.039 3.655 l 435.762 1.241 433.457 0.03 431.016 0.03
 c 427.098 0.03 425.121 2.667 425.121 6.139 c 427.719 25.593 m 430.426 25.593
 l 430.426 21.823 l 427.719 21.823 l h
434.664 25.593 m 437.371 25.593 l 437.371 21.823 l 434.664 21.823 l f
444.031 2.956 m 445.895 4.495 l 447.363 2.999 449.113 2.233 451.453 2.233
 c 453.648 2.233 455.914 3.366 455.914 5.518 c 455.914 7.565 454.633 8.151
 452.109 8.62 c 449.992 9.061 l 446.809 9.686 444.836 11.147 444.836 13.784
 c 444.836 16.96 447.434 19.264 451.418 19.264 c 454.191 19.264 456.391 
18.608 457.812 16.96 c 455.953 15.534 l 454.781 16.557 453.355 17.139 451.273
 17.139 c 449.039 17.139 447.508 15.94 447.508 14.186 c 447.508 12.425 449.008
 11.843 451.484 11.331 c 454.234 10.745 l 456.934 10.159 458.727 8.694 458.727
 5.995 c 458.727 2.011 455.035 0.034 451.484 0.034 c 448.496 0.034 445.746
 0.839 444.031 2.956 c f
461.988 2.956 m 463.855 4.495 l 465.32 2.999 467.07 2.233 469.41 2.233 
c 471.605 2.233 473.871 3.366 473.871 5.518 c 473.871 7.565 472.59 8.151
 470.07 8.62 c 467.949 9.061 l 464.766 9.686 462.793 11.147 462.793 13.784
 c 462.793 16.96 465.391 19.264 469.375 19.264 c 472.152 19.264 474.352 
18.608 475.77 16.96 c 473.91 15.534 l 472.738 16.557 471.309 17.139 469.23
 17.139 c 466.996 17.139 465.465 15.94 465.465 14.186 c 465.465 12.425 466.965
 11.843 469.445 11.331 c 472.188 10.745 l 474.891 10.159 476.688 8.694 476.688
 5.995 c 476.688 2.011 472.992 0.034 469.445 0.034 c 466.457 0.034 463.707
 0.839 461.988 2.956 c f
480.387 7.452 m 480.387 11.327 l 480.387 16.378 483.828 19.19 488.25 19.19
 c 492.305 19.19 495.523 16.741 495.523 11.991 c 495.523 9.1 l 483.207 9.1
 l 483.207 7.198 l 483.207 4.206 485.25 2.335 488.461 2.335 c 490.586 2.335
 492.125 3.436 493.109 4.679 c 495.191 3.436 l 493.543 0.874 490.914 -0.001
 488.289 -0.001 c 483.785 -0.001 480.387 2.409 480.387 7.452 c 492.816 10.999
 m 492.816 12.061 l 492.816 14.839 491.168 16.921 488.102 16.921 c 485.141
 16.921 483.207 14.733 483.207 11.804 c 483.207 10.999 l f
500.324 4.972 m 500.324 26.573 l 503.062 26.573 l 503.062 4.862 l 503.062
 3.577 503.758 2.597 505.441 2.597 c 506.172 2.597 506.789 2.702 507.449
 2.772 c 507.449 0.694 l 506.531 0.397 505.406 0.257 504.523 0.257 c 501.016
 0.257 500.324 2.847 500.324 4.972 c f
510.086 2.956 m 511.945 4.495 l 513.414 2.999 515.168 2.233 517.512 2.233
 c 519.699 2.233 521.965 3.366 521.965 5.518 c 521.965 7.565 520.688 8.151
 518.164 8.62 c 516.047 9.061 l 512.863 9.686 510.895 11.147 510.895 13.784
 c 510.895 16.96 513.484 19.264 517.473 19.264 c 520.25 19.264 522.441 18.608
 523.867 16.96 c 522.004 15.534 l 520.832 16.557 519.406 17.139 517.324 
17.139 c 515.094 17.139 513.562 15.94 513.562 14.186 c 513.562 12.425 515.059
 11.843 517.543 11.331 c 520.285 10.745 l 522.988 10.159 524.781 8.694 524.781
 5.995 c 524.781 2.011 521.094 0.034 517.543 0.034 c 514.547 0.034 511.805
 0.839 510.086 2.956 c f
529.363 26.573 m 532.07 26.573 l 532.07 15.643 l 532.176 15.643 l 533.414
 18.014 535.758 19.222 538.094 19.222 c 542.004 19.222 543.98 16.671 543.98
 13.163 c 543.98 0.472 l 541.234 0.472 l 541.234 12.136 l 541.234 15.386
 539.711 16.85 537.258 16.85 c 534.48 16.85 532.07 14.768 532.07 11.292 
c 532.07 0.472 l 529.363 0.472 l f
548.637 7.452 m 548.637 11.327 l 548.637 16.378 552.074 19.19 556.5 19.19
 c 560.551 19.19 563.773 16.741 563.773 11.991 c 563.773 9.1 l 551.457 9.1
 l 551.457 7.198 l 551.457 4.206 553.5 2.335 556.711 2.335 c 558.836 2.335
 560.371 3.436 561.359 4.679 c 563.441 3.436 l 561.793 0.874 559.164 -0.001
 556.535 -0.001 c 552.031 -0.001 548.637 2.409 548.637 7.452 c 561.066 10.999
 m 561.066 12.061 l 561.066 14.839 559.418 16.921 556.352 16.921 c 553.391
 16.921 551.457 14.733 551.457 11.804 c 551.457 10.999 l f
568.535 26.534 m 571.242 26.534 l 571.242 22.55 l 568.535 22.55 l h
568.535 18.819 m 571.242 18.819 l 571.242 0.472 l 568.535 0.472 l f
576.906 18.823 m 579.535 18.823 l 579.535 15.643 l 579.613 15.643 l 580.898
 18.014 583.16 19.225 585.684 19.225 c 588.531 19.225 590.176 17.581 590.867
 15.569 c 590.91 15.569 l 592.227 17.909 594.531 19.225 597.195 19.225 c
 600.738 19.225 603.082 16.995 603.082 13.413 c 603.082 0.472 l 600.379 
0.472 l 600.379 12.136 l 600.379 15.241 598.984 16.847 596.391 16.847 c 
593.648 16.847 591.457 14.581 591.383 11.589 c 591.383 0.472 l 588.68 0.472
 l 588.68 12.202 l 588.605 15.171 587.324 16.847 584.695 16.847 c 582.391
 16.847 579.648 15.022 579.648 11.554 c 579.648 0.472 l 576.906 0.472 l f
Q Q
showpage
%%Trailer
end restore
%%EOF
